Colby RUG –tidyr v 1.0
…
Splitting rows into multiple rows based on delimited values

You can also split delimited values across rows.

separate_rows(df2.long, var1, sep="_")

# A tibble: 32 x 3
   state         var1     income
   <fct>         <chr>     <dbl>
 1 Maine         male      50329
 2 Maine         fulltime  50329
 3 Maine         male      18099
 4 Maine         other     18099
 5 Maine         female    40054
 6 Maine         fulltime  40054
 7 Maine         female    13781
 8 Maine         other     13781
 9 Massachusetts male      66066
10 Massachusetts fulltime  66066
# ... with 22 more rows
…
